Reset;Min;Max;Avg
flop_count_dp;0;0;0;
flop_count_sp;0;0;0;
flop_count_hp;0;0;0;
gld_transactions;2;2;2;
gst_transactions;301568;301568;301568;
atomic_transactions;0;0;0;
local_load_transactions;0;0;0;
local_store_transactions;0;0;0;
shared_load_transactions;0;0;0;
shared_store_transactions;0;0;0;
l2_read_transactions;96;418;223;
l2_write_transactions;301581;301581;301581;
dram_read_transactions;6;184;75;
dram_write_transactions;301903;311522;303680;
flop_count_dp;0;0;0;
flop_count_sp;0;0;0;
flop_count_hp;0;0;0;
gld_transactions;2;2;2;
gst_transactions;301568;301568;301568;
atomic_transactions;0;0;0;
local_load_transactions;0;0;0;
local_store_transactions;0;0;0;
shared_load_transactions;0;0;0;
shared_store_transactions;0;0;0;
l2_read_transactions;96;418;223;
l2_write_transactions;301581;301581;301581;
dram_read_transactions;6;184;75;
dram_write_transactions;301903;311522;303680;
Reset;time(ms);Avg(ms);Min(ms);Max(ms);
Reset;88.297466;0.022074;0.021217;0.029282;
