Compute;Min;Max;Avg
flop_count_dp;16255896;16261766;16257538;
flop_count_sp;1463358;1464444;1463652;
flop_count_hp;0;0;0;
gld_transactions;1154304;1154611;1154470;
gst_transactions;365;729;613;
atomic_transactions;0;0;0;
local_load_transactions;0;0;0;
local_store_transactions;0;0;0;
shared_load_transactions;5112;5171;5138;
shared_store_transactions;19711;20194;19951;
l2_read_transactions;274965;286900;278786;
l2_write_transactions;381;2924;795;
dram_read_transactions;96859;152051;143843;
dram_write_transactions;59377;79128;69291;
flop_count_dp;16255896;16261766;16257538;
flop_count_sp;1463358;1464444;1463652;
flop_count_hp;0;0;0;
gld_transactions;1154304;1154611;1154470;
gst_transactions;365;729;613;
atomic_transactions;0;0;0;
local_load_transactions;0;0;0;
local_store_transactions;0;0;0;
shared_load_transactions;5112;5171;5138;
shared_store_transactions;19711;20194;19951;
l2_read_transactions;274965;286900;278786;
l2_write_transactions;381;2924;795;
dram_read_transactions;96859;152051;143843;
dram_write_transactions;59377;79128;69291;
Compute;time(ms);Avg(us);Min(us);Max(us);
Compute;92.862103;23.215000;20.543000;27.295000;
