Reset;Min;Max;Avg
flop_count_dp;0;0;0;
flop_count_sp;0;0;0;
flop_count_hp;0;0;0;
gld_transactions;0;0;0;
gst_transactions;4836992;4836992;4836992;
atomic_transactions;0;0;0;
local_load_transactions;0;0;0;
local_store_transactions;0;0;0;
shared_load_transactions;0;0;0;
shared_store_transactions;0;0;0;
l2_read_transactions;96;340;159;
l2_write_transactions;4855790;4972100;4871220;
dram_read_transactions;18757;19501;18840;
dram_write_transactions;4837022;4971347;4865422;
flop_count_dp;0;0;0;
flop_count_sp;0;0;0;
flop_count_hp;0;0;0;
gld_transactions;0;0;0;
gst_transactions;4836992;4836992;4836992;
atomic_transactions;0;0;0;
local_load_transactions;0;0;0;
local_store_transactions;0;0;0;
shared_load_transactions;0;0;0;
shared_store_transactions;0;0;0;
l2_read_transactions;96;340;159;
l2_write_transactions;4855790;4972100;4871220;
dram_read_transactions;18757;19501;18840;
dram_write_transactions;4837022;4971347;4865422;
Reset;time(s);Avg(ms);Min(ms);Max(ms);
Reset;13.294272;0.207722;0.203964;0.214844;
