sciddicaTResetFlows;Min;Max;Avg
flop_count_dp;0;0;0;
flop_count_sp;0;0;0;
flop_count_hp;0;0;0;
gld_transactions;0;0;0;
gst_transactions;4840960;4840960;4840960;
atomic_transactions;0;0;0;
local_load_transactions;0;0;0;
local_store_transactions;0;0;0;
shared_load_transactions;0;0;0;
shared_store_transactions;0;0;0;
l2_read_transactions;96;400;147;
l2_write_transactions;4840989;4950270;4850888;
dram_read_transactions;6;462;20;
dram_write_transactions;4820880;4937229;4835905;
flop_count_dp;0;0;0;
flop_count_sp;0;0;0;
flop_count_hp;0;0;0;
gld_transactions;0;0;0;
gst_transactions;4840960;4840960;4840960;
atomic_transactions;0;0;0;
local_load_transactions;0;0;0;
local_store_transactions;0;0;0;
shared_load_transactions;0;0;0;
shared_store_transactions;0;0;0;
l2_read_transactions;96;400;147;
l2_write_transactions;4840989;4950270;4850888;
dram_read_transactions;6;462;20;
dram_write_transactions;4820880;4937229;4835905;
sciddicaTResetFlows;time(s);Avg(ms);Min(ms);Max(ms);
sciddicaTResetFlows;11.150246;0.174222;0.173756;0.176541;
