sciddicaTResetFlows;Min;Max;Avg
flop_count_dp;0;0;0;
flop_count_sp;0;0;0;
flop_count_hp;0;0;0;
gld_transactions;0;0;0;
gst_transactions;302560;302560;302560;
atomic_transactions;0;0;0;
local_load_transactions;0;0;0;
local_store_transactions;0;0;0;
shared_load_transactions;0;0;0;
shared_store_transactions;0;0;0;
l2_read_transactions;96;336;160;
l2_write_transactions;302588;326828;305720;
dram_read_transactions;6;94;14;
dram_write_transactions;288751;326528;295126;
flop_count_dp;0;0;0;
flop_count_sp;0;0;0;
flop_count_hp;0;0;0;
gld_transactions;0;0;0;
gst_transactions;302560;302560;302560;
atomic_transactions;0;0;0;
local_load_transactions;0;0;0;
local_store_transactions;0;0;0;
shared_load_transactions;0;0;0;
shared_store_transactions;0;0;0;
l2_read_transactions;96;336;160;
l2_write_transactions;302588;326828;305720;
dram_read_transactions;6;94;14;
dram_write_transactions;288751;326528;295126;
sciddicaTResetFlows;time(ms);Avg(us);Min(us);Max(ms);
sciddicaTResetFlows;74.263211;18.565000;16.928000;0.019872;
