==38372== NVPROF is profiling process 38372, command: ./sciddicaTcudawithHaloCells ../data/tessina_headerX16.txt ../data/tessina_demX16.txt ../data/tessina_sourceX16.txt ./tessina_output_cuda 64000
==38372== Profiling application: ./sciddicaTcudawithHaloCells ../data/tessina_headerX16.txt ../data/tessina_demX16.txt ../data/tessina_sourceX16.txt ./tessina_output_cuda 64000
==38372== Profiling result:
"Type","Time(%)","Time","Calls","Avg","Min","Max","Name"
,%,s,,ms,ms,ms,
"GPU activities",46.575349,17.334222,64000,0.270847,0.266267,0.278682,"sciddicaTWidthUpdate(int, int, int, int, int, int, double, double*, double*, double*)"
"GPU activities",30.007505,11.168070,64000,0.174501,0.173853,14.276867,"sciddicaTResetFlows(int, int, int, int, int, int, double, double*)"
"GPU activities",23.360157,8.694087,64000,0.135845,0.131965,12.863743,"sciddicaTFlowsComputation(int, int, int, int, int, int, double, double*, double*, double*, double, double)"
"GPU activities",0.056980,0.021207,1,21.206713,21.206713,21.206713,"sciddicaTSimulationInit(int, int, int, int, int, int, double*, double*)"
"GPU activities",0.000009,0.000003,2,0.001584,0.001408,0.001760,"[CUDA memcpy HtoD]"

==38372== Unified Memory profiling result:
"Device","Count","Avg Size","Min Size","Max Size","Total Size","Total Time",""
"Tesla V100-SXM2-32GB (0)",2478,27.710938KB,4.000000KB,0.976562MB,67.058594MB,13.482065ms,"Host To Device"
"Tesla V100-SXM2-32GB (0)",226,167.344727KB,4.000000KB,0.996094MB,36.933594MB,3.291585ms,"Device To Host"
"Tesla V100-SXM2-32GB (0)",,,,,223B,48.217588ms,"Gpu page fault groups"
Total CPU Page faults: 339
