==2583485== NVPROF is profiling process 2583485, command: ./sciddicaTsycl_dpcpp ../data/tessina_header.txt ../data/tessina_dem.txt ../data/tessina_source.txt ./tessina_output_OpenCL 4000 8 4
==2583485== Profiling application: ./sciddicaTsycl_dpcpp ../data/tessina_header.txt ../data/tessina_dem.txt ../data/tessina_source.txt ./tessina_output_OpenCL 4000 8 4
==2583485== Profiling result:
"Type","Time(%)","Time","Calls","Avg","Min","Max","Name"
,%,ms,,ms,ms,ms,
"GPU activities",61.337371,437.252118,4000,0.109313,0.094948,0.127942,"_ZTSZZ4mainENKUlRN2cl4sycl7handlerEE0_clES2_E7Compute"
"GPU activities",26.357637,187.894145,4000,0.046973,0.045314,0.051778,"_ZTSZZ4mainENKUlRN2cl4sycl7handlerEE1_clES2_E6Update"
"GPU activities",11.822725,84.279970,4000,0.021069,0.020257,0.025409,"_ZTSZZ4mainENKUlRN2cl4sycl7handlerEE_clES2_E5Reset"
"GPU activities",0.420900,3.000447,2,1.500223,1.488831,1.511616,"[CUDA memcpy HtoD]"
"GPU activities",0.061366,0.437458,1,0.437458,0.437458,0.437458,"[CUDA memcpy DtoH]"
