Update;Min;Max;Avg
flop_count_dp;2402816;2402816;2402816;
flop_count_sp;0;0;0;
flop_count_hp;0;0;0;
gld_transactions;826625;827073;826858;
gst_transactions;75392;75392;75392;
atomic_transactions;0;0;0;
local_load_transactions;0;0;0;
local_store_transactions;0;0;0;
shared_load_transactions;0;0;0;
shared_store_transactions;0;0;0;
l2_read_transactions;562642;576299;566408;
l2_write_transactions;75429;99303;79327;
dram_read_transactions;342383;377278;348697;
dram_write_transactions;71381;125849;82391;
flop_count_dp;2402816;2402816;2402816;
flop_count_sp;0;0;0;
flop_count_hp;0;0;0;
gld_transactions;826625;827073;826858;
gst_transactions;75392;75392;75392;
atomic_transactions;0;0;0;
local_load_transactions;0;0;0;
local_store_transactions;0;0;0;
shared_load_transactions;0;0;0;
shared_store_transactions;0;0;0;
l2_read_transactions;562642;576299;566408;
l2_write_transactions;75429;99303;79327;
dram_read_transactions;342383;377278;348697;
dram_write_transactions;71381;125849;82391;
Update;time(ms);Avg(us);Min(us);Max(us);
Update;99.229774;24.807000;23.903000;26.431000;
