sciddicaTFlowsComputation;Min;Max;Avg
flop_count_dp;12940904;12943243;12941344;
flop_count_sp;860180;860538;860235;
flop_count_hp;0;0;0;
gld_transactions;896454;896785;896625;
gst_transactions;281;532;455;
atomic_transactions;0;0;0;
local_load_transactions;0;0;0;
local_store_transactions;0;0;0;
shared_load_transactions;0;0;0;
shared_store_transactions;0;0;0;
l2_read_transactions;374290;375301;374955;
l2_write_transactions;297;4243;772;
dram_read_transactions;95675;151453;144628;
dram_write_transactions;54364;82929;71168;
flop_count_dp;12940904;12943243;12941344;
flop_count_sp;860180;860538;860235;
flop_count_hp;0;0;0;
gld_transactions;896454;896785;896625;
gst_transactions;281;532;455;
atomic_transactions;0;0;0;
local_load_transactions;0;0;0;
local_store_transactions;0;0;0;
shared_load_transactions;0;0;0;
shared_store_transactions;0;0;0;
l2_read_transactions;374290;375301;374955;
l2_write_transactions;297;4243;772;
dram_read_transactions;95675;151453;144628;
dram_write_transactions;54364;82929;71168;
sciddicaTFlowsComputation;time(ms);Avg(us);Min(us);Max(ms);
sciddicaTFlowsComputation;82.569375;20.642000;19.135000;0.024223;
