==99552== NVPROF is profiling process 99552, command: ./sciddicaTsycl_dpcpp_without_halo_cells ../data/tessina_headerX16.txt ../data/tessina_demX16.txt ../data/tessina_sourceX16.txt ./tessina_output_OpenCL 100 32 4
==99552== Some kernel(s) will be replayed on device 0 in order to collect all events/metrics.
==99552== Profiling application: ./sciddicaTsycl_dpcpp_without_halo_cells ../data/tessina_headerX16.txt ../data/tessina_demX16.txt ../data/tessina_sourceX16.txt ./tessina_output_OpenCL 100 32 4
==99552== Profiling result:
==99552== Metric result:
"Device","Kernel","Invocations","Metric Name","Metric Description","Min","Max","Avg"
"NVIDIA TITAN Xp (0)","_ZTSZZ4mainENKUlRN2cl4sycl7handlerEE1_clES2_E5Reset",100,"flop_count_dp","Floating Point Operations(Double Precision)",0,0,0
"NVIDIA TITAN Xp (0)","_ZTSZZ4mainENKUlRN2cl4sycl7handlerEE1_clES2_E5Reset",100,"flop_count_sp","Floating Point Operations(Single Precision)",0,0,0
"NVIDIA TITAN Xp (0)","_ZTSZZ4mainENKUlRN2cl4sycl7handlerEE1_clES2_E5Reset",100,"flop_count_hp","Floating Point Operations(Half Precision)",0,0,0
"NVIDIA TITAN Xp (0)","_ZTSZZ4mainENKUlRN2cl4sycl7handlerEE1_clES2_E5Reset",100,"gld_transactions","Global Load Transactions",2,2,2
"NVIDIA TITAN Xp (0)","_ZTSZZ4mainENKUlRN2cl4sycl7handlerEE1_clES2_E5Reset",100,"gst_transactions","Global Store Transactions",4836992,4836992,4836992
"NVIDIA TITAN Xp (0)","_ZTSZZ4mainENKUlRN2cl4sycl7handlerEE1_clES2_E5Reset",100,"atomic_transactions","Atomic Transactions",0,0,0
"NVIDIA TITAN Xp (0)","_ZTSZZ4mainENKUlRN2cl4sycl7handlerEE1_clES2_E5Reset",100,"local_load_transactions","Local Load Transactions",0,0,0
"NVIDIA TITAN Xp (0)","_ZTSZZ4mainENKUlRN2cl4sycl7handlerEE1_clES2_E5Reset",100,"local_store_transactions","Local Store Transactions",0,0,0
"NVIDIA TITAN Xp (0)","_ZTSZZ4mainENKUlRN2cl4sycl7handlerEE1_clES2_E5Reset",100,"shared_load_transactions","Shared Load Transactions",0,0,0
"NVIDIA TITAN Xp (0)","_ZTSZZ4mainENKUlRN2cl4sycl7handlerEE1_clES2_E5Reset",100,"shared_store_transactions","Shared Store Transactions",0,0,0
"NVIDIA TITAN Xp (0)","_ZTSZZ4mainENKUlRN2cl4sycl7handlerEE1_clES2_E5Reset",100,"l2_read_transactions","L2 Read Transactions",96,3034,943
"NVIDIA TITAN Xp (0)","_ZTSZZ4mainENKUlRN2cl4sycl7handlerEE1_clES2_E5Reset",100,"l2_write_transactions","L2 Write Transactions",4837005,4837005,4837005
"NVIDIA TITAN Xp (0)","_ZTSZZ4mainENKUlRN2cl4sycl7handlerEE1_clES2_E5Reset",100,"dram_read_transactions","Device Memory Read Transactions",6,2784,806
"NVIDIA TITAN Xp (0)","_ZTSZZ4mainENKUlRN2cl4sycl7handlerEE1_clES2_E5Reset",100,"dram_write_transactions","Device Memory Write Transactions",4840345,4861744,4860790
"NVIDIA TITAN Xp (0)","_ZTSZZ4mainENKUlRN2cl4sycl7handlerEE3_clES2_E6Update",100,"flop_count_dp","Floating Point Operations(Double Precision)",38656928,38656928,38656928
"NVIDIA TITAN Xp (0)","_ZTSZZ4mainENKUlRN2cl4sycl7handlerEE3_clES2_E6Update",100,"flop_count_sp","Floating Point Operations(Single Precision)",0,0,0
"NVIDIA TITAN Xp (0)","_ZTSZZ4mainENKUlRN2cl4sycl7handlerEE3_clES2_E6Update",100,"flop_count_hp","Floating Point Operations(Half Precision)",0,0,0
"NVIDIA TITAN Xp (0)","_ZTSZZ4mainENKUlRN2cl4sycl7handlerEE3_clES2_E6Update",100,"gld_transactions","Global Load Transactions",43400418,43400418,43400418
"NVIDIA TITAN Xp (0)","_ZTSZZ4mainENKUlRN2cl4sycl7handlerEE3_clES2_E6Update",100,"gst_transactions","Global Store Transactions",1357966,1357966,1357966
"NVIDIA TITAN Xp (0)","_ZTSZZ4mainENKUlRN2cl4sycl7handlerEE3_clES2_E6Update",100,"atomic_transactions","Atomic Transactions",0,0,0
"NVIDIA TITAN Xp (0)","_ZTSZZ4mainENKUlRN2cl4sycl7handlerEE3_clES2_E6Update",100,"local_load_transactions","Local Load Transactions",19512,19512,19512
"NVIDIA TITAN Xp (0)","_ZTSZZ4mainENKUlRN2cl4sycl7handlerEE3_clES2_E6Update",100,"local_store_transactions","Local Store Transactions",1222144,1222144,1222144
"NVIDIA TITAN Xp (0)","_ZTSZZ4mainENKUlRN2cl4sycl7handlerEE3_clES2_E6Update",100,"shared_load_transactions","Shared Load Transactions",4899488,4899488,4899488
"NVIDIA TITAN Xp (0)","_ZTSZZ4mainENKUlRN2cl4sycl7handlerEE3_clES2_E6Update",100,"shared_store_transactions","Shared Store Transactions",4888576,4888576,4888576
"NVIDIA TITAN Xp (0)","_ZTSZZ4mainENKUlRN2cl4sycl7handlerEE3_clES2_E6Update",100,"l2_read_transactions","L2 Read Transactions",12030518,12034224,12032692
"NVIDIA TITAN Xp (0)","_ZTSZZ4mainENKUlRN2cl4sycl7handlerEE3_clES2_E6Update",100,"l2_write_transactions","L2 Write Transactions",2580123,2580251,2580124
"NVIDIA TITAN Xp (0)","_ZTSZZ4mainENKUlRN2cl4sycl7handlerEE3_clES2_E6Update",100,"dram_read_transactions","Device Memory Read Transactions",7030090,7284884,7188450
"NVIDIA TITAN Xp (0)","_ZTSZZ4mainENKUlRN2cl4sycl7handlerEE3_clES2_E6Update",100,"dram_write_transactions","Device Memory Write Transactions",2238125,2295521,2269178
"NVIDIA TITAN Xp (0)","_ZTSZZ4mainENKUlRN2cl4sycl7handlerEE2_clES2_E7Compute",100,"flop_count_dp","Floating Point Operations(Double Precision)",242606874,242656651,242645160
"NVIDIA TITAN Xp (0)","_ZTSZZ4mainENKUlRN2cl4sycl7handlerEE2_clES2_E7Compute",100,"flop_count_sp","Floating Point Operations(Single Precision)",21022950,21029600,21024889
"NVIDIA TITAN Xp (0)","_ZTSZZ4mainENKUlRN2cl4sycl7handlerEE2_clES2_E7Compute",100,"flop_count_hp","Floating Point Operations(Half Precision)",0,0,0
"NVIDIA TITAN Xp (0)","_ZTSZZ4mainENKUlRN2cl4sycl7handlerEE2_clES2_E7Compute",100,"gld_transactions","Global Load Transactions",52791746,52791746,52791746
"NVIDIA TITAN Xp (0)","_ZTSZZ4mainENKUlRN2cl4sycl7handlerEE2_clES2_E7Compute",100,"gst_transactions","Global Store Transactions",2493,7049,6155
"NVIDIA TITAN Xp (0)","_ZTSZZ4mainENKUlRN2cl4sycl7handlerEE2_clES2_E7Compute",100,"atomic_transactions","Atomic Transactions",0,0,0
"NVIDIA TITAN Xp (0)","_ZTSZZ4mainENKUlRN2cl4sycl7handlerEE2_clES2_E7Compute",100,"local_load_transactions","Local Load Transactions",0,0,0
"NVIDIA TITAN Xp (0)","_ZTSZZ4mainENKUlRN2cl4sycl7handlerEE2_clES2_E7Compute",100,"local_store_transactions","Local Store Transactions",0,0,0
"NVIDIA TITAN Xp (0)","_ZTSZZ4mainENKUlRN2cl4sycl7handlerEE2_clES2_E7Compute",100,"shared_load_transactions","Shared Load Transactions",50434,50434,50434
"NVIDIA TITAN Xp (0)","_ZTSZZ4mainENKUlRN2cl4sycl7handlerEE2_clES2_E7Compute",100,"shared_store_transactions","Shared Store Transactions",302436,302436,302436
"NVIDIA TITAN Xp (0)","_ZTSZZ4mainENKUlRN2cl4sycl7handlerEE2_clES2_E7Compute",100,"l2_read_transactions","L2 Read Transactions",14524739,14529613,14527126
"NVIDIA TITAN Xp (0)","_ZTSZZ4mainENKUlRN2cl4sycl7handlerEE2_clES2_E7Compute",100,"l2_write_transactions","L2 Write Transactions",2634,7155,6171
"NVIDIA TITAN Xp (0)","_ZTSZZ4mainENKUlRN2cl4sycl7handlerEE2_clES2_E7Compute",100,"dram_read_transactions","Device Memory Read Transactions",2423698,2427052,2425821
"NVIDIA TITAN Xp (0)","_ZTSZZ4mainENKUlRN2cl4sycl7handlerEE2_clES2_E7Compute",100,"dram_write_transactions","Device Memory Write Transactions",47152,51246,50156
