TILE_SIZE;CUDA_Tiled_withhalocells;CUDA_Tiled_withouthalocells;OpenCL_without_halocells;SYCL_DPCCC_WITHOUT_HALO_CELLS;
4;492.031000;206.134000;243.387000;247.549000;
8;140.830000;113.780000;137.257000;152.199000;
16;109.641000;114.083000;138.062000;146.946000;
32;121.189000;124.867000;143.157000;159.008000;
