BLOCK_SIZE_(X_Y);CUDA;OpenCL;SYCL_DPCCC;OPS_CUDA;OPS_OpenCL;
4_4;0.389000;0.478000;0.381000;0.370000;0.636000;
4_8;0.242000;0.367000;0.239000;0.321000;0.561000;
4_16;0.200000;0.363000;0.215000;0.342000;0.600000;
4_32;0.203000;0.366000;0.214000;0.360000;0.617000;
8_4;0.239000;0.343000;0.231000;0.294000;0.486000;
8_8;0.197000;0.352000;0.208000;0.304000;0.506000;
8_16;0.199000;0.351000;0.212000;0.313000;0.511000;
8_32;0.202000;0.348000;0.213000;0.316000;0.509000;
16_4;0.202000;0.349000;0.211000;0.270000;0.437000;
16_8;0.202000;0.349000;0.213000;0.273000;0.438000;
16_16;0.204000;0.347000;0.214000;0.274000;0.437000;
16_32;0.205000;0.348000;0.218000;0.282000;0.424000;
32_4;0.202000;0.354000;0.214000;0.252000;0.396000;
32_8;0.207000;0.351000;0.218000;0.253000;0.395000;
32_16;0.206000;0.351000;0.222000;0.256000;0.383000;
32_32;0.213000;0.355000;0.231000;0.269000;0.383000;
