==37077== NVPROF is profiling process 37077, command: ./sciddicaTcudawithHaloCells ../data/tessina_header.txt ../data/tessina_dem.txt ../data/tessina_source.txt ./tessina_output_cuda 100
==37077== Some kernel(s) will be replayed on device 0 in order to collect all events/metrics.
==37077== Profiling application: ./sciddicaTcudawithHaloCells ../data/tessina_header.txt ../data/tessina_dem.txt ../data/tessina_source.txt ./tessina_output_cuda 100
==37077== Profiling result:
==37077== Metric result:
"Device","Kernel","Invocations","Metric Name","Metric Description","Min","Max","Avg"
"Tesla V100-SXM2-32GB (0)","sciddicaTWidthUpdate(int, int, int, int, int, int, double, double*, double*, double*)",100,"flop_count_dp","Floating Point Operations(Double Precision)",1991808,1991808,1991808
"Tesla V100-SXM2-32GB (0)","sciddicaTWidthUpdate(int, int, int, int, int, int, double, double*, double*, double*)",100,"flop_count_sp","Floating Point Operations(Single Precision)",0,0,0
"Tesla V100-SXM2-32GB (0)","sciddicaTWidthUpdate(int, int, int, int, int, int, double, double*, double*, double*)",100,"flop_count_hp","Floating Point Operations(Half Precision)",0,0,0
"Tesla V100-SXM2-32GB (0)","sciddicaTWidthUpdate(int, int, int, int, int, int, double, double*, double*, double*)",100,"gld_transactions","Global Load Transactions",446142,446431,446307
"Tesla V100-SXM2-32GB (0)","sciddicaTWidthUpdate(int, int, int, int, int, int, double, double*, double*, double*)",100,"gst_transactions","Global Store Transactions",80136,80136,80136
"Tesla V100-SXM2-32GB (0)","sciddicaTWidthUpdate(int, int, int, int, int, int, double, double*, double*, double*)",100,"atomic_transactions","Atomic Transactions",0,0,0
"Tesla V100-SXM2-32GB (0)","sciddicaTWidthUpdate(int, int, int, int, int, int, double, double*, double*, double*)",100,"local_load_transactions","Local Load Transactions",0,0,0
"Tesla V100-SXM2-32GB (0)","sciddicaTWidthUpdate(int, int, int, int, int, int, double, double*, double*, double*)",100,"local_store_transactions","Local Store Transactions",0,0,0
"Tesla V100-SXM2-32GB (0)","sciddicaTWidthUpdate(int, int, int, int, int, int, double, double*, double*, double*)",100,"shared_load_transactions","Shared Load Transactions",438680,442708,440562
"Tesla V100-SXM2-32GB (0)","sciddicaTWidthUpdate(int, int, int, int, int, int, double, double*, double*, double*)",100,"shared_store_transactions","Shared Store Transactions",163584,163584,163584
"Tesla V100-SXM2-32GB (0)","sciddicaTWidthUpdate(int, int, int, int, int, int, double, double*, double*, double*)",100,"l2_read_transactions","L2 Read Transactions",445139,446437,445715
"Tesla V100-SXM2-32GB (0)","sciddicaTWidthUpdate(int, int, int, int, int, int, double, double*, double*, double*)",100,"l2_write_transactions","L2 Write Transactions",80171,103030,83592
"Tesla V100-SXM2-32GB (0)","sciddicaTWidthUpdate(int, int, int, int, int, int, double, double*, double*, double*)",100,"dram_read_transactions","Device Memory Read Transactions",290892,313638,296263
"Tesla V100-SXM2-32GB (0)","sciddicaTWidthUpdate(int, int, int, int, int, int, double, double*, double*, double*)",100,"dram_write_transactions","Device Memory Write Transactions",64143,118882,77961
"Tesla V100-SXM2-32GB (0)","sciddicaTSimulationInit(int, int, int, int, int, int, double*, double*)",1,"flop_count_dp","Floating Point Operations(Double Precision)",637,637,637
"Tesla V100-SXM2-32GB (0)","sciddicaTSimulationInit(int, int, int, int, int, int, double*, double*)",1,"flop_count_sp","Floating Point Operations(Single Precision)",0,0,0
"Tesla V100-SXM2-32GB (0)","sciddicaTSimulationInit(int, int, int, int, int, int, double*, double*)",1,"flop_count_hp","Floating Point Operations(Half Precision)",0,0,0
"Tesla V100-SXM2-32GB (0)","sciddicaTSimulationInit(int, int, int, int, int, int, double*, double*)",1,"gld_transactions","Global Load Transactions",75822,75822,75822
"Tesla V100-SXM2-32GB (0)","sciddicaTSimulationInit(int, int, int, int, int, int, double*, double*)",1,"gst_transactions","Global Store Transactions",182,182,182
"Tesla V100-SXM2-32GB (0)","sciddicaTSimulationInit(int, int, int, int, int, int, double*, double*)",1,"atomic_transactions","Atomic Transactions",0,0,0
"Tesla V100-SXM2-32GB (0)","sciddicaTSimulationInit(int, int, int, int, int, int, double*, double*)",1,"local_load_transactions","Local Load Transactions",0,0,0
"Tesla V100-SXM2-32GB (0)","sciddicaTSimulationInit(int, int, int, int, int, int, double*, double*)",1,"local_store_transactions","Local Store Transactions",0,0,0
"Tesla V100-SXM2-32GB (0)","sciddicaTSimulationInit(int, int, int, int, int, int, double*, double*)",1,"shared_load_transactions","Shared Load Transactions",0,0,0
"Tesla V100-SXM2-32GB (0)","sciddicaTSimulationInit(int, int, int, int, int, int, double*, double*)",1,"shared_store_transactions","Shared Store Transactions",0,0,0
"Tesla V100-SXM2-32GB (0)","sciddicaTSimulationInit(int, int, int, int, int, int, double*, double*)",1,"l2_read_transactions","L2 Read Transactions",75918,75918,75918
"Tesla V100-SXM2-32GB (0)","sciddicaTSimulationInit(int, int, int, int, int, int, double*, double*)",1,"l2_write_transactions","L2 Write Transactions",199,199,199
"Tesla V100-SXM2-32GB (0)","sciddicaTSimulationInit(int, int, int, int, int, int, double*, double*)",1,"dram_read_transactions","Device Memory Read Transactions",72740,72740,72740
"Tesla V100-SXM2-32GB (0)","sciddicaTSimulationInit(int, int, int, int, int, int, double*, double*)",1,"dram_write_transactions","Device Memory Write Transactions",5071,5071,5071
"Tesla V100-SXM2-32GB (0)","sciddicaTFlowsComputation(int, int, int, int, int, int, double, double*, double*, double*, double, double)",100,"flop_count_dp","Floating Point Operations(Double Precision)",8908765,8909510,8909177
"Tesla V100-SXM2-32GB (0)","sciddicaTFlowsComputation(int, int, int, int, int, int, double, double*, double*, double*, double, double)",100,"flop_count_sp","Floating Point Operations(Single Precision)",757428,757786,757483
"Tesla V100-SXM2-32GB (0)","sciddicaTFlowsComputation(int, int, int, int, int, int, double, double*, double*, double*, double, double)",100,"flop_count_hp","Floating Point Operations(Half Precision)",0,0,0
"Tesla V100-SXM2-32GB (0)","sciddicaTFlowsComputation(int, int, int, int, int, int, double, double*, double*, double*, double, double)",100,"gld_transactions","Global Load Transactions",343131,343357,343266
"Tesla V100-SXM2-32GB (0)","sciddicaTFlowsComputation(int, int, int, int, int, int, double, double*, double*, double*, double, double)",100,"gst_transactions","Global Store Transactions",320,633,542
"Tesla V100-SXM2-32GB (0)","sciddicaTFlowsComputation(int, int, int, int, int, int, double, double*, double*, double*, double, double)",100,"atomic_transactions","Atomic Transactions",0,0,0
"Tesla V100-SXM2-32GB (0)","sciddicaTFlowsComputation(int, int, int, int, int, int, double, double*, double*, double*, double, double)",100,"local_load_transactions","Local Load Transactions",0,0,0
"Tesla V100-SXM2-32GB (0)","sciddicaTFlowsComputation(int, int, int, int, int, int, double, double*, double*, double*, double, double)",100,"local_store_transactions","Local Store Transactions",0,0,0
"Tesla V100-SXM2-32GB (0)","sciddicaTFlowsComputation(int, int, int, int, int, int, double, double*, double*, double*, double, double)",100,"shared_load_transactions","Shared Load Transactions",207893,210085,209447
"Tesla V100-SXM2-32GB (0)","sciddicaTFlowsComputation(int, int, int, int, int, int, double, double*, double*, double*, double, double)",100,"shared_store_transactions","Shared Store Transactions",21644,22091,21839
"Tesla V100-SXM2-32GB (0)","sciddicaTFlowsComputation(int, int, int, int, int, int, double, double*, double*, double*, double, double)",100,"l2_read_transactions","L2 Read Transactions",182285,183911,182835
"Tesla V100-SXM2-32GB (0)","sciddicaTFlowsComputation(int, int, int, int, int, int, double, double*, double*, double*, double, double)",100,"l2_write_transactions","L2 Write Transactions",336,1440,676
"Tesla V100-SXM2-32GB (0)","sciddicaTFlowsComputation(int, int, int, int, int, int, double, double*, double*, double*, double, double)",100,"dram_read_transactions","Device Memory Read Transactions",73867,125667,118728
"Tesla V100-SXM2-32GB (0)","sciddicaTFlowsComputation(int, int, int, int, int, int, double, double*, double*, double*, double, double)",100,"dram_write_transactions","Device Memory Write Transactions",42144,57335,53243
"Tesla V100-SXM2-32GB (0)","sciddicaTResetFlows(int, int, int, int, int, int, double, double*)",100,"flop_count_dp","Floating Point Operations(Double Precision)",0,0,0
"Tesla V100-SXM2-32GB (0)","sciddicaTResetFlows(int, int, int, int, int, int, double, double*)",100,"flop_count_sp","Floating Point Operations(Single Precision)",0,0,0
"Tesla V100-SXM2-32GB (0)","sciddicaTResetFlows(int, int, int, int, int, int, double, double*)",100,"flop_count_hp","Floating Point Operations(Half Precision)",0,0,0
"Tesla V100-SXM2-32GB (0)","sciddicaTResetFlows(int, int, int, int, int, int, double, double*)",100,"gld_transactions","Global Load Transactions",0,0,0
"Tesla V100-SXM2-32GB (0)","sciddicaTResetFlows(int, int, int, int, int, int, double, double*)",100,"gst_transactions","Global Store Transactions",302560,302560,302560
"Tesla V100-SXM2-32GB (0)","sciddicaTResetFlows(int, int, int, int, int, int, double, double*)",100,"atomic_transactions","Atomic Transactions",0,0,0
"Tesla V100-SXM2-32GB (0)","sciddicaTResetFlows(int, int, int, int, int, int, double, double*)",100,"local_load_transactions","Local Load Transactions",0,0,0
"Tesla V100-SXM2-32GB (0)","sciddicaTResetFlows(int, int, int, int, int, int, double, double*)",100,"local_store_transactions","Local Store Transactions",0,0,0
"Tesla V100-SXM2-32GB (0)","sciddicaTResetFlows(int, int, int, int, int, int, double, double*)",100,"shared_load_transactions","Shared Load Transactions",0,0,0
"Tesla V100-SXM2-32GB (0)","sciddicaTResetFlows(int, int, int, int, int, int, double, double*)",100,"shared_store_transactions","Shared Store Transactions",0,0,0
"Tesla V100-SXM2-32GB (0)","sciddicaTResetFlows(int, int, int, int, int, int, double, double*)",100,"l2_read_transactions","L2 Read Transactions",96,336,132
"Tesla V100-SXM2-32GB (0)","sciddicaTResetFlows(int, int, int, int, int, int, double, double*)",100,"l2_write_transactions","L2 Write Transactions",302588,326372,305437
"Tesla V100-SXM2-32GB (0)","sciddicaTResetFlows(int, int, int, int, int, int, double, double*)",100,"dram_read_transactions","Device Memory Read Transactions",4,57,16
"Tesla V100-SXM2-32GB (0)","sciddicaTResetFlows(int, int, int, int, int, int, double, double*)",100,"dram_write_transactions","Device Memory Write Transactions",250119,298234,258672
