==26863== NVPROF is profiling process 26863, command: ./sciddicaTcudaStraightforward ../data/tessina_header.txt ../data/tessina_dem.txt ../data/tessina_source.txt ./tessina_output_cuda 4000 8 4
==26863== Profiling application: ./sciddicaTcudaStraightforward ../data/tessina_header.txt ../data/tessina_dem.txt ../data/tessina_source.txt ./tessina_output_cuda 4000 8 4
==26863== Profiling result:
"Type","Time(%)","Time","Calls","Avg","Min","Max","Name"
,%,ms,,us,us,ms,
"GPU activities",38.197767,99.102071,4000,24.775000,23.424000,0.026176,"sciddicaTWidthUpdate(int, int, int, int, int, int, double, double*, double*, double*)"
"GPU activities",31.825427,82.569375,4000,20.642000,19.135000,0.024223,"sciddicaTFlowsComputation(int, int, int, int, int, int, double, double*, double*, double*, double, double)"
"GPU activities",28.721732,74.517003,4000,18.629000,17.375000,0.020032,"sciddicaTResetFlows(int, int, int, int, int, int, double, double*)"
"GPU activities",1.122610,2.912552,5,582.510000,1.440000,2.226869,"[CUDA memcpy HtoD]"
"GPU activities",0.124066,0.321882,1,321.882000,321.882000,0.321882,"[CUDA memcpy DtoH]"
"GPU activities",0.008399,0.021791,1,21.791000,21.791000,0.021791,"sciddicaTSimulationInit(int, int, int, int, int, int, double*, double*)"
