sciddicaTWidthUpdate;Min;Max;Avg
flop_count_dp;2420480;2420480;2420480;
flop_count_sp;0;0;0;
flop_count_hp;0;0;0;
gld_transactions;2723042;2723042;2723042;
gst_transactions;75640;75640;75640;
atomic_transactions;0;0;0;
local_load_transactions;0;0;0;
local_store_transactions;0;0;0;
shared_load_transactions;0;0;0;
shared_store_transactions;0;0;0;
l2_read_transactions;491119;492910;490596;
l2_write_transactions;75653;75653;75653;
dram_read_transactions;377629;378517;377267;
dram_write_transactions;100071;100799;98228;
flop_count_dp;2420480;2420480;2420480;
flop_count_sp;0;0;0;
flop_count_hp;0;0;0;
gld_transactions;2723042;2723042;2723042;
gst_transactions;75640;75640;75640;
atomic_transactions;0;0;0;
local_load_transactions;0;0;0;
local_store_transactions;0;0;0;
shared_load_transactions;0;0;0;
shared_store_transactions;0;0;0;
l2_read_transactions;491119;492910;490596;
l2_write_transactions;75653;75653;75653;
dram_read_transactions;377629;378517;377267;
dram_write_transactions;100071;100799;98228;
sciddicaTWidthUpdate;time(ms);Avg(us);Min(us);Max(ms);
sciddicaTWidthUpdate;156.623284;39.155000;38.209000;0.044578;
