sciddicaTResetFlows;Min;Max;Avg
flop_count_dp;0;0;0;
flop_count_sp;0;0;0;
flop_count_hp;0;0;0;
gld_transactions;2;2;2;
gst_transactions;302560;302560;302560;
atomic_transactions;0;0;0;
local_load_transactions;0;0;0;
local_store_transactions;0;0;0;
shared_load_transactions;0;0;0;
shared_store_transactions;0;0;0;
l2_read_transactions;153;288;96;
l2_write_transactions;302573;302573;302573;
dram_read_transactions;14;37;5;
dram_write_transactions;299595;306611;297685;
flop_count_dp;0;0;0;
flop_count_sp;0;0;0;
flop_count_hp;0;0;0;
gld_transactions;2;2;2;
gst_transactions;302560;302560;302560;
atomic_transactions;0;0;0;
local_load_transactions;0;0;0;
local_store_transactions;0;0;0;
shared_load_transactions;0;0;0;
shared_store_transactions;0;0;0;
l2_read_transactions;153;288;96;
l2_write_transactions;302573;302573;302573;
dram_read_transactions;14;37;5;
dram_write_transactions;299595;306611;297685;
sciddicaTResetFlows;time(ms);Avg(us);Min(us);Max(ms);
sciddicaTResetFlows;81.367241;20.341000;19.585000;0.029921;
