Compute;Min;Max;Avg
flop_count_dp;16664823;16669740;16662944;
flop_count_sp;1459187;1459968;1458898;
flop_count_hp;0;0;0;
gld_transactions;3025602;3025602;3025602;
gst_transactions;455;532;281;
atomic_transactions;0;0;0;
local_load_transactions;0;0;0;
local_store_transactions;0;0;0;
shared_load_transactions;0;0;0;
shared_store_transactions;0;0;0;
l2_read_transactions;1053401;1053920;1053152;
l2_write_transactions;468;545;294;
dram_read_transactions;151327;151597;151285;
dram_write_transactions;47882;48780;46001;
flop_count_dp;16664823;16669740;16662944;
flop_count_sp;1459187;1459968;1458898;
flop_count_hp;0;0;0;
gld_transactions;3025602;3025602;3025602;
gst_transactions;455;532;281;
atomic_transactions;0;0;0;
local_load_transactions;0;0;0;
local_store_transactions;0;0;0;
shared_load_transactions;0;0;0;
shared_store_transactions;0;0;0;
l2_read_transactions;1053401;1053920;1053152;
l2_write_transactions;468;545;294;
dram_read_transactions;151327;151597;151285;
dram_write_transactions;47882;48780;46001;
Compute;time(ms);Avg(ms);Min(ms);Max(ms);
Compute;437.252118;0.109313;0.094948;0.127942;
