Update;Min;Max;Avg
flop_count_dp;2402816;2402816;2402816;
flop_count_sp;0;0;0;
flop_count_hp;0;0;0;
gld_transactions;2723042;2723042;2723042;
gst_transactions;75392;75392;75392;
atomic_transactions;0;0;0;
local_load_transactions;0;0;0;
local_store_transactions;0;0;0;
shared_load_transactions;0;0;0;
shared_store_transactions;0;0;0;
l2_read_transactions;828275;828480;828192;
l2_write_transactions;75405;75405;75405;
dram_read_transactions;376918;377262;376450;
dram_write_transactions;101296;102042;99407;
flop_count_dp;2402816;2402816;2402816;
flop_count_sp;0;0;0;
flop_count_hp;0;0;0;
gld_transactions;2723042;2723042;2723042;
gst_transactions;75392;75392;75392;
atomic_transactions;0;0;0;
local_load_transactions;0;0;0;
local_store_transactions;0;0;0;
shared_load_transactions;0;0;0;
shared_store_transactions;0;0;0;
l2_read_transactions;828275;828480;828192;
l2_write_transactions;75405;75405;75405;
dram_read_transactions;376918;377262;376450;
dram_write_transactions;101296;102042;99407;
Update;time(ms);Avg(ms);Min(ms);Max(ms);
Update;187.894145;0.046973;0.045314;0.051778;
