==2754== NVPROF is profiling process 2754, command: ./sciddicaTsycl_dpcpp ../data/tessina_headerX16.txt ../data/tessina_demX16.txt ../data/tessina_sourceX16.txt ./tessina_output_OpenCL 64000 32 4
==2754== Profiling application: ./sciddicaTsycl_dpcpp ../data/tessina_headerX16.txt ../data/tessina_demX16.txt ../data/tessina_sourceX16.txt ./tessina_output_OpenCL 64000 32 4
==2754== Profiling result:
"Type","Time(%)","Time","Calls","Avg","Min","Max","Name"
,%,s,,ms,ms,ms,
"GPU activities",48.059809,21.706937,64000,0.339170,0.331034,0.344762,"_ZTSZZ4mainENKUlRN2cl4sycl7handlerEE1_clES2_E6Update"
"GPU activities",29.433915,13.294272,64000,0.207722,0.203964,0.214844,"_ZTSZZ4mainENKUlRN2cl4sycl7handlerEE_clES2_E5Reset"
"GPU activities",22.447188,10.138611,64000,0.158415,0.153917,0.174140,"_ZTSZZ4mainENKUlRN2cl4sycl7handlerEE0_clES2_E7Compute"
"GPU activities",0.040537,0.018309,2,9.154589,8.873299,9.435880,"[CUDA memcpy HtoD]"
"GPU activities",0.018550,0.008378,1,8.378426,8.378426,8.378426,"[CUDA memcpy DtoH]"
