==2584== NVPROF is profiling process 2584, command: ./sciddicaTsycl_dpcpp ../data/tessina_headerX16.txt ../data/tessina_demX16.txt ../data/tessina_sourceX16.txt ./tessina_output_OpenCL 100 32 4
==2584== Some kernel(s) will be replayed on device 0 in order to collect all events/metrics.
==2584== Profiling application: ./sciddicaTsycl_dpcpp ../data/tessina_headerX16.txt ../data/tessina_demX16.txt ../data/tessina_sourceX16.txt ./tessina_output_OpenCL 100 32 4
==2584== Profiling result:
==2584== Metric result:
"Device","Kernel","Invocations","Metric Name","Metric Description","Min","Max","Avg"
"Tesla V100-SXM2-32GB (0)","_ZTSZZ4mainENKUlRN2cl4sycl7handlerEE1_clES2_E6Update",100,"flop_count_dp","Floating Point Operations(Double Precision)",38656928,38656928,38656928
"Tesla V100-SXM2-32GB (0)","_ZTSZZ4mainENKUlRN2cl4sycl7handlerEE1_clES2_E6Update",100,"flop_count_sp","Floating Point Operations(Single Precision)",0,0,0
"Tesla V100-SXM2-32GB (0)","_ZTSZZ4mainENKUlRN2cl4sycl7handlerEE1_clES2_E6Update",100,"flop_count_hp","Floating Point Operations(Half Precision)",0,0,0
"Tesla V100-SXM2-32GB (0)","_ZTSZZ4mainENKUlRN2cl4sycl7handlerEE1_clES2_E6Update",100,"gld_transactions","Global Load Transactions",13275022,13276933,13276189
"Tesla V100-SXM2-32GB (0)","_ZTSZZ4mainENKUlRN2cl4sycl7handlerEE1_clES2_E6Update",100,"gst_transactions","Global Store Transactions",1209248,1209248,1209248
"Tesla V100-SXM2-32GB (0)","_ZTSZZ4mainENKUlRN2cl4sycl7handlerEE1_clES2_E6Update",100,"atomic_transactions","Atomic Transactions",0,0,0
"Tesla V100-SXM2-32GB (0)","_ZTSZZ4mainENKUlRN2cl4sycl7handlerEE1_clES2_E6Update",100,"local_load_transactions","Local Load Transactions",0,0,0
"Tesla V100-SXM2-32GB (0)","_ZTSZZ4mainENKUlRN2cl4sycl7handlerEE1_clES2_E6Update",100,"local_store_transactions","Local Store Transactions",0,0,0
"Tesla V100-SXM2-32GB (0)","_ZTSZZ4mainENKUlRN2cl4sycl7handlerEE1_clES2_E6Update",100,"shared_load_transactions","Shared Load Transactions",0,0,0
"Tesla V100-SXM2-32GB (0)","_ZTSZZ4mainENKUlRN2cl4sycl7handlerEE1_clES2_E6Update",100,"shared_store_transactions","Shared Store Transactions",0,0,0
"Tesla V100-SXM2-32GB (0)","_ZTSZZ4mainENKUlRN2cl4sycl7handlerEE1_clES2_E6Update",100,"l2_read_transactions","L2 Read Transactions",9265240,9278392,9270707
"Tesla V100-SXM2-32GB (0)","_ZTSZZ4mainENKUlRN2cl4sycl7handlerEE1_clES2_E6Update",100,"l2_write_transactions","L2 Write Transactions",1209283,1324195,1225456
"Tesla V100-SXM2-32GB (0)","_ZTSZZ4mainENKUlRN2cl4sycl7handlerEE1_clES2_E6Update",100,"dram_read_transactions","Device Memory Read Transactions",6048948,6049764,6049202
"Tesla V100-SXM2-32GB (0)","_ZTSZZ4mainENKUlRN2cl4sycl7handlerEE1_clES2_E6Update",100,"dram_write_transactions","Device Memory Write Transactions",1256035,1378339,1271671
"Tesla V100-SXM2-32GB (0)","_ZTSZZ4mainENKUlRN2cl4sycl7handlerEE0_clES2_E7Compute",100,"flop_count_dp","Floating Point Operations(Double Precision)",248412842,248461578,248443058
"Tesla V100-SXM2-32GB (0)","_ZTSZZ4mainENKUlRN2cl4sycl7handlerEE0_clES2_E7Compute",100,"flop_count_sp","Floating Point Operations(Single Precision)",21004856,21011506,21006795
"Tesla V100-SXM2-32GB (0)","_ZTSZZ4mainENKUlRN2cl4sycl7handlerEE0_clES2_E7Compute",100,"flop_count_hp","Floating Point Operations(Half Precision)",0,0,0
"Tesla V100-SXM2-32GB (0)","_ZTSZZ4mainENKUlRN2cl4sycl7handlerEE0_clES2_E7Compute",100,"gld_transactions","Global Load Transactions",16910704,16912815,16911695
"Tesla V100-SXM2-32GB (0)","_ZTSZZ4mainENKUlRN2cl4sycl7handlerEE0_clES2_E7Compute",100,"gst_transactions","Global Store Transactions",2434,6385,5580
"Tesla V100-SXM2-32GB (0)","_ZTSZZ4mainENKUlRN2cl4sycl7handlerEE0_clES2_E7Compute",100,"atomic_transactions","Atomic Transactions",0,0,0
"Tesla V100-SXM2-32GB (0)","_ZTSZZ4mainENKUlRN2cl4sycl7handlerEE0_clES2_E7Compute",100,"local_load_transactions","Local Load Transactions",0,0,0
"Tesla V100-SXM2-32GB (0)","_ZTSZZ4mainENKUlRN2cl4sycl7handlerEE0_clES2_E7Compute",100,"local_store_transactions","Local Store Transactions",0,0,0
"Tesla V100-SXM2-32GB (0)","_ZTSZZ4mainENKUlRN2cl4sycl7handlerEE0_clES2_E7Compute",100,"shared_load_transactions","Shared Load Transactions",0,0,0
"Tesla V100-SXM2-32GB (0)","_ZTSZZ4mainENKUlRN2cl4sycl7handlerEE0_clES2_E7Compute",100,"shared_store_transactions","Shared Store Transactions",0,0,0
"Tesla V100-SXM2-32GB (0)","_ZTSZZ4mainENKUlRN2cl4sycl7handlerEE0_clES2_E7Compute",100,"l2_read_transactions","L2 Read Transactions",7375125,7382936,7379005
"Tesla V100-SXM2-32GB (0)","_ZTSZZ4mainENKUlRN2cl4sycl7handlerEE0_clES2_E7Compute",100,"l2_write_transactions","L2 Write Transactions",4459,118655,21727
"Tesla V100-SXM2-32GB (0)","_ZTSZZ4mainENKUlRN2cl4sycl7handlerEE0_clES2_E7Compute",100,"dram_read_transactions","Device Memory Read Transactions",2421686,2423377,2421925
"Tesla V100-SXM2-32GB (0)","_ZTSZZ4mainENKUlRN2cl4sycl7handlerEE0_clES2_E7Compute",100,"dram_write_transactions","Device Memory Write Transactions",100313,218533,124059
"Tesla V100-SXM2-32GB (0)","_ZTSZZ4mainENKUlRN2cl4sycl7handlerEE_clES2_E5Reset",100,"flop_count_dp","Floating Point Operations(Double Precision)",0,0,0
"Tesla V100-SXM2-32GB (0)","_ZTSZZ4mainENKUlRN2cl4sycl7handlerEE_clES2_E5Reset",100,"flop_count_sp","Floating Point Operations(Single Precision)",0,0,0
"Tesla V100-SXM2-32GB (0)","_ZTSZZ4mainENKUlRN2cl4sycl7handlerEE_clES2_E5Reset",100,"flop_count_hp","Floating Point Operations(Half Precision)",0,0,0
"Tesla V100-SXM2-32GB (0)","_ZTSZZ4mainENKUlRN2cl4sycl7handlerEE_clES2_E5Reset",100,"gld_transactions","Global Load Transactions",0,0,0
"Tesla V100-SXM2-32GB (0)","_ZTSZZ4mainENKUlRN2cl4sycl7handlerEE_clES2_E5Reset",100,"gst_transactions","Global Store Transactions",4836992,4836992,4836992
"Tesla V100-SXM2-32GB (0)","_ZTSZZ4mainENKUlRN2cl4sycl7handlerEE_clES2_E5Reset",100,"atomic_transactions","Atomic Transactions",0,0,0
"Tesla V100-SXM2-32GB (0)","_ZTSZZ4mainENKUlRN2cl4sycl7handlerEE_clES2_E5Reset",100,"local_load_transactions","Local Load Transactions",0,0,0
"Tesla V100-SXM2-32GB (0)","_ZTSZZ4mainENKUlRN2cl4sycl7handlerEE_clES2_E5Reset",100,"local_store_transactions","Local Store Transactions",0,0,0
"Tesla V100-SXM2-32GB (0)","_ZTSZZ4mainENKUlRN2cl4sycl7handlerEE_clES2_E5Reset",100,"shared_load_transactions","Shared Load Transactions",0,0,0
"Tesla V100-SXM2-32GB (0)","_ZTSZZ4mainENKUlRN2cl4sycl7handlerEE_clES2_E5Reset",100,"shared_store_transactions","Shared Store Transactions",0,0,0
"Tesla V100-SXM2-32GB (0)","_ZTSZZ4mainENKUlRN2cl4sycl7handlerEE_clES2_E5Reset",100,"l2_read_transactions","L2 Read Transactions",96,340,159
"Tesla V100-SXM2-32GB (0)","_ZTSZZ4mainENKUlRN2cl4sycl7handlerEE_clES2_E5Reset",100,"l2_write_transactions","L2 Write Transactions",4855790,4972100,4871220
"Tesla V100-SXM2-32GB (0)","_ZTSZZ4mainENKUlRN2cl4sycl7handlerEE_clES2_E5Reset",100,"dram_read_transactions","Device Memory Read Transactions",18757,19501,18840
"Tesla V100-SXM2-32GB (0)","_ZTSZZ4mainENKUlRN2cl4sycl7handlerEE_clES2_E5Reset",100,"dram_write_transactions","Device Memory Write Transactions",4837022,4971347,4865422
