Compute;Min;Max;Avg
flop_count_dp;242606874;242656651;242645160;
flop_count_sp;21022950;21029600;21024889;
flop_count_hp;0;0;0;
gld_transactions;52791746;52791746;52791746;
gst_transactions;2493;7049;6155;
atomic_transactions;0;0;0;
local_load_transactions;0;0;0;
local_store_transactions;0;0;0;
shared_load_transactions;50434;50434;50434;
shared_store_transactions;302436;302436;302436;
l2_read_transactions;14524739;14529613;14527126;
l2_write_transactions;2634;7155;6171;
dram_read_transactions;2423698;2427052;2425821;
dram_write_transactions;47152;51246;50156;
flop_count_dp;242606874;242656651;242645160;
flop_count_sp;21022950;21029600;21024889;
flop_count_hp;0;0;0;
gld_transactions;52791746;52791746;52791746;
gst_transactions;2493;7049;6155;
atomic_transactions;0;0;0;
local_load_transactions;0;0;0;
local_store_transactions;0;0;0;
shared_load_transactions;50434;50434;50434;
shared_store_transactions;302436;302436;302436;
l2_read_transactions;14524739;14529613;14527126;
l2_write_transactions;2634;7155;6171;
dram_read_transactions;2423698;2427052;2425821;
dram_write_transactions;47152;51246;50156;
Compute;time(s);Avg(ms);Min(ms);Max(ms);
Compute;88.523947;1.383186;1.357730;1.788151;
