sciddicaTResetFlows;Min;Max;Avg
flop_count_dp;0;0;0;
flop_count_sp;0;0;0;
flop_count_hp;0;0;0;
gld_transactions;0;0;0;
gst_transactions;302560;302560;302560;
atomic_transactions;0;0;0;
local_load_transactions;0;0;0;
local_store_transactions;0;0;0;
shared_load_transactions;0;0;0;
shared_store_transactions;0;0;0;
l2_read_transactions;96;336;132;
l2_write_transactions;302588;326372;305437;
dram_read_transactions;4;57;16;
dram_write_transactions;250119;298234;258672;
flop_count_dp;0;0;0;
flop_count_sp;0;0;0;
flop_count_hp;0;0;0;
gld_transactions;0;0;0;
gst_transactions;302560;302560;302560;
atomic_transactions;0;0;0;
local_load_transactions;0;0;0;
local_store_transactions;0;0;0;
shared_load_transactions;0;0;0;
shared_store_transactions;0;0;0;
l2_read_transactions;96;336;132;
l2_write_transactions;302588;326372;305437;
dram_read_transactions;4;57;16;
dram_write_transactions;250119;298234;258672;
sciddicaTResetFlows;time(ms);Avg(ms);Min(ms);Max(ms);
sciddicaTResetFlows;52.361478;0.013090;0.012128;1.381266;
